Chance accuracy = 0.523489932886
Best   accuracy = 0.547945205479
Misclassified training samples = 71.0
Correctly classified training samples = 78.0
Misclassified validation samples = 33.0


Correctly classified validation samples = 40.0
# Feature selected = 1
Feature selected: ['rs1609572']
******************************************************* 
 

