Chance accuracy = 0.503355704698
Best   accuracy = 0.547945205479
Misclassified training samples = 34.0
Correctly classified training samples = 115.0
Misclassified validation samples = 33.0


Correctly classified validation samples = 40.0
# Feature selected = 14
Feature selected: ['rs310801' 'rs2319125' 'rs1502007' 'rs12911184' 'rs727675' 'rs2008974'
 'rs10248455' 'rs3806839' 'rs7615155' 'rs2123182' 'rs2214270' 'rs1199668'
 'rs12139234' 'rs4256810']
******************************************************* 
 

