Chance accuracy = 0.543624161074
Best   accuracy = 0.520547945205
Misclassified training samples = 18.0
Correctly classified training samples = 131.0
Misclassified validation samples = 35.0


Correctly classified validation samples = 38.0
# Feature selected = 222
Feature selected: ['rs4941691' 'rs4770476' 'rs9517465' 'rs6491681' 'rs3742245' 'rs1412908'
 'rs656305' 'rs1053985' 'rs2217513' 'rs522071' 'rs7318267' 'rs9538485'
 'rs1434721' 'rs3782235' 'rs569138' 'rs4526844' 'rs4759316' 'rs7308958'
 'rs3943606' 'rs11052552' 'rs1498792' 'rs2465584' 'rs2839798' 'rs6538356'
 'rs2056220' 'rs10735031' 'rs7109832' 'rs9610' 'rs10500913' 'rs2615018'
 'rs12273919' 'rs2514461' 'rs2509956' 'rs2638087' 'rs17577073' 'rs4937877'
 'rs10796161' 'rs10824840' 'rs11256576' 'rs2243510' 'rs10752299'
 'rs10901713' 'rs10824726' 'rs1331326' 'rs7068747' 'rs4748159' 'rs8079946'
 'rs4792941' 'rs1443417' 'rs7503353' 'rs8073077' 'rs6504903' 'rs4792592'
 'rs2434209' 'rs4783781' 'rs1564983' 'rs11630791' 'rs1863270' 'rs11630247'
 'rs4561444' 'rs2037349' 'rs351223' 'rs12911670' 'rs387727' 'rs4984516'
 'rs17478430' 'rs4887473' 'rs797348' 'rs8004654' 'rs8018211' 'rs11621104'
 'rs12895874' 'rs11159412' 'rs8010032' 'rs4803722' 'rs2886790' 'rs2097765'
 'rs1871047' 'rs2928932' 'rs2000698' 'rs186884' 'rs713130' 'rs11876846'
 'rs2564464' 'rs1210638' 'rs2014298' 'rs2858226' 'rs1998382' 'rs400420'
 'rs208250' 'rs404775' 'rs6069924' 'rs6050201' 'rs1883956' 'rs7281587'
 'rs10439714' 'rs7798161' 'rs2097937' 'rs13244566' 'rs3735311' 'rs7783322'
 'rs9886155' 'rs10499441' 'rs2888206' 'rs884824' 'rs3213709' 'rs6934234'
 'rs1327474' 'rs204994' 'rs803447' 'rs3130573' 'rs3130284' 'rs11759810'
 'rs3131021' 'rs9456814' 'rs12196606' 'rs2479992' 'rs9372587' 'rs1592411'
 'rs2504921' 'rs9320409' 'rs1746471' 'rs1280275' 'rs1290329' 'rs11759810'
 'rs7710807' 'rs12519073' 'rs1363673' 'rs224845' 'rs9327669' 'rs2565004'
 'rs26136' 'rs157501' 'rs2964917' 'rs7717375' 'rs922558' 'rs12517451'
 'rs1818116' 'rs17641413' 'rs3763120' 'rs1393114' 'rs4700168' 'rs10513153'
 'rs6552353' 'rs6854088' 'rs4323085' 'rs2276922' 'rs6552353' 'rs2903643'
 'rs7681618' 'rs4693188' 'rs10857235' 'rs6857681' 'rs9291482' 'rs10001378'
 'rs2589850' 'rs2168681' 'rs6445263' 'rs16824028' 'rs893367' 'rs1915103'
 'rs4568055' 'rs12488213' 'rs9862904' 'rs535689' 'rs12620158' 'rs1898016'
 'rs1346730' 'rs1385956' 'rs13383267' 'rs6543007' 'rs1921651' 'rs1025077'
 'rs3100244' 'rs6738207' 'rs1898016' 'rs754868' 'rs10206984' 'rs6544324'
 'rs13035632' 'rs7566612' 'rs7578650' 'rs6543981' 'rs2175176' 'rs6727032'
 'rs6726454' 'rs6661743' 'rs10875032' 'rs11576263' 'rs852801' 'rs1885646'
 'rs3818446' 'rs3127468' 'rs1567213' 'rs12035746' 'rs6429696' 'rs3789452'
 'rs868688' 'rs1911166' 'rs1326328' 'rs2182660' 'rs12344168' 'rs1999472'
 'rs10810013' 'rs9886802' 'rs4745444' 'rs10815461' 'rs1260463' 'rs10125338'
 'rs11140976' 'rs10814280' 'rs4741657' 'rs756777' 'rs6982358' 'rs7827856'
 'rs17725186' 'rs4831314' 'rs4628268' 'rs1357812' 'rs352765' 'rs13272106'
 'rs10107411']
******************************************************* 
 

