Chance accuracy = 0.536912751678
Best   accuracy = 0.520547945205
Misclassified training samples = 69.0
Correctly classified training samples = 80.0
Misclassified validation samples = 35.0


Correctly classified validation samples = 38.0
# Feature selected = 2
Feature selected: ['rs2342155' 'rs3825202']
******************************************************* 
 

