Chance accuracy = 0.55033557047
Best   accuracy = 0.520547945205
Misclassified training samples = 55.0
Correctly classified training samples = 94.0
Misclassified validation samples = 35.0


Correctly classified validation samples = 38.0
# Feature selected = 6
Feature selected: ['rs2329119' 'rs10886574' 'rs9419617' 'rs4547043' 'rs6504901' 'rs9274689']
******************************************************* 
 

