Chance accuracy = 0.510067114094
Best   accuracy = 0.534246575342
Misclassified training samples = 20.0
Correctly classified training samples = 129.0
Misclassified validation samples = 34.0


Correctly classified validation samples = 39.0
# Feature selected = 57
Feature selected: ['rs2146752' 'rs1022909' 'rs9558993' 'rs3991594' 'rs342705' 'rs12253847'
 'rs11253038' 'rs4789241' 'rs16974980' 'rs1978492' 'rs4786461' 'rs4965384'
 'rs1993007' 'rs8013916' 'rs10138650' 'rs7152412' 'rs7155906' 'rs7253927'
 'rs516514' 'rs464385' 'rs6031395' 'rs6137527' 'rs2826126' 'rs2032090'
 'rs327703' 'rs2969070' 'rs9376628' 'rs4895943' 'rs4709322' 'rs9488132'
 'rs1445708' 'rs10072741' 'rs10072741' 'rs6851301' 'rs7684006' 'rs1212166'
 'rs6447849' 'rs12490004' 'rs1880481' 'rs1002034' 'rs1795321' 'rs4683070'
 'rs9284879' 'rs17639046' 'rs730344' 'rs754868' 'rs604737' 'rs259659'
 'rs10819930' 'rs593821' 'rs5007780' 'rs7467853' 'rs1431478' 'rs6984526'
 'rs2919303' 'rs10100261' 'rs2060109']
******************************************************* 
 

