Chance accuracy = 0.543624161074
Best   accuracy = 0.534246575342
Misclassified training samples = 45.0
Correctly classified training samples = 104.0
Misclassified validation samples = 34.0


Correctly classified validation samples = 39.0
# Feature selected = 6
Feature selected: ['rs4246307' 'rs4903663' 'rs1857961' 'rs1857961' 'rs2197801' 'rs488948']
******************************************************* 
 

