Chance accuracy = 0.55033557047
Best   accuracy = 0.561643835616
Misclassified training samples = 28.0
Correctly classified training samples = 121.0
Misclassified validation samples = 32.0


Correctly classified validation samples = 41.0
# Feature selected = 13
Feature selected: ['rs4765344' 'rs8040422' 'rs4402510' 'rs483351' 'rs1668852' 'rs13211072'
 'rs974110' 'rs1076929' 'rs1445795' 'rs590183' 'rs4953672' 'rs12741135'
 'rs1556263']
******************************************************* 
 

