Chance accuracy = 0.543624161074
Best   accuracy = 0.506849315068
Misclassified training samples = 68.0
Correctly classified training samples = 81.0
Misclassified validation samples = 36.0


Correctly classified validation samples = 37.0
# Feature selected = 2
Feature selected: ['rs550830' 'rs2050505']
******************************************************* 
 

