Chance accuracy = 0.523489932886
Best   accuracy = 0.58904109589
Misclassified training samples = 55.0
Correctly classified training samples = 94.0
Misclassified validation samples = 30.0


Correctly classified validation samples = 43.0
# Feature selected = 6
Feature selected: ['rs9516372' 'rs731597' 'rs2400170' 'rs4285047' 'rs1962363' 'rs2900195']
******************************************************* 
 

