Chance accuracy = 0.51677852349
Best   accuracy = 0.561643835616
Misclassified training samples = 72.0
Correctly classified training samples = 77.0
Misclassified validation samples = 32.0


Correctly classified validation samples = 41.0
# Feature selected = 2
Feature selected: ['rs1978395' 'rs795347']
******************************************************* 
 

