Chance accuracy = 0.530201342282
Best   accuracy = 0.534246575342
Misclassified training samples = 70.0
Correctly classified training samples = 79.0
Misclassified validation samples = 34.0


Correctly classified validation samples = 39.0
# Feature selected = 3
Feature selected: ['rs6828754' 'rs9820339' 'rs10089677']
******************************************************* 
 

